[
{
  "model": "denuncia.categoriadenuncia",
  "pk": 101,
  "fields": {
    "nome": "Ar",
    "legislacao": null
  }
},
{
  "model": "denuncia.categoriadenuncia",
  "pk": 102,
  "fields": {
    "nome": "Solos",
    "legislacao": null
  }
},
{
  "model": "denuncia.categoriadenuncia",
  "pk": 103,
  "fields": {
    "nome": "Vegeta\u00e7\u00e3o",
    "legislacao": null
  }
},
{
  "model": "denuncia.categoriadenuncia",
  "pk": 104,
  "fields": {
    "nome": "Animais",
    "legislacao": null
  }
},
{
  "model": "denuncia.categoriadenuncia",
  "pk": 105,
  "fields": {
    "nome": "\u00c1gua",
    "legislacao": null
  }
},
{
  "model": "denuncia.categoriadenuncia",
  "pk": 106,
  "fields": {
    "nome": "Contamina\u00e7\u00e3o por agrot\u00f3xicos",
    "legislacao": null
  }
},
{
  "model": "denuncia.areadenuncia",
  "pk": 407,
  "fields": {
    "nome": "Polui\u00e7\u00e3o",
    "categoria_denuncia": 101
  }
},
{
  "model": "denuncia.areadenuncia",
  "pk": 408,
  "fields": {
    "nome": "Cheiro forte",
    "categoria_denuncia": 101
  }
},
{
  "model": "denuncia.areadenuncia",
  "pk": 409,
  "fields": {
    "nome": "Ru\u00eddo",
    "categoria_denuncia": 101
  }
},
{
  "model": "denuncia.areadenuncia",
  "pk": 410,
  "fields": {
    "nome": "Fuma\u00e7a",
    "categoria_denuncia": 101
  }
},
{
  "model": "denuncia.areadenuncia",
  "pk": 411,
  "fields": {
    "nome": "Lixo",
    "categoria_denuncia": 102
  }
},
{
  "model": "denuncia.areadenuncia",
  "pk": 412,
  "fields": {
    "nome": "Polui\u00e7\u00e3o/contamina\u00e7\u00e3o",
    "categoria_denuncia": 102
  }
},
{
  "model": "denuncia.areadenuncia",
  "pk": 413,
  "fields": {
    "nome": "Eros\u00e3o",
    "categoria_denuncia": 102
  }
},
{
  "model": "denuncia.areadenuncia",
  "pk": 414,
  "fields": {
    "nome": "Minera\u00e7\u00e3o",
    "categoria_denuncia": 102
  }
},
{
  "model": "denuncia.areadenuncia",
  "pk": 415,
  "fields": {
    "nome": "Desmatamento",
    "categoria_denuncia": 103
  }
},
{
  "model": "denuncia.areadenuncia",
  "pk": 416,
  "fields": {
    "nome": "Queimada",
    "categoria_denuncia": 103
  }
},
{
  "model": "denuncia.areadenuncia",
  "pk": 417,
  "fields": {
    "nome": "Uso de motosserra",
    "categoria_denuncia": 103
  }
},
{
  "model": "denuncia.areadenuncia",
  "pk": 418,
  "fields": {
    "nome": "Poda dr\u00e1stica",
    "categoria_denuncia": 103
  }
},
{
  "model": "denuncia.areadenuncia",
  "pk": 419,
  "fields": {
    "nome": "\u00c1rvore doente",
    "categoria_denuncia": 103
  }
},
{
  "model": "denuncia.areadenuncia",
  "pk": 420,
  "fields": {
    "nome": "Ca\u00e7a",
    "categoria_denuncia": 104
  }
},
{
  "model": "denuncia.areadenuncia",
  "pk": 421,
  "fields": {
    "nome": "Pesca",
    "categoria_denuncia": 104
  }
},
{
  "model": "denuncia.areadenuncia",
  "pk": 422,
  "fields": {
    "nome": "Tr\u00e1fico",
    "categoria_denuncia": 104
  }
},
{
  "model": "denuncia.areadenuncia",
  "pk": 423,
  "fields": {
    "nome": "Cativeiro",
    "categoria_denuncia": 104
  }
},
{
  "model": "denuncia.areadenuncia",
  "pk": 424,
  "fields": {
    "nome": "Maus tratos",
    "categoria_denuncia": 104
  }
},
{
  "model": "denuncia.areadenuncia",
  "pk": 425,
  "fields": {
    "nome": "Morte",
    "categoria_denuncia": 104
  }
},
{
  "model": "denuncia.areadenuncia",
  "pk": 426,
  "fields": {
    "nome": "Foco de dengue",
    "categoria_denuncia": 104
  }
},
{
  "model": "denuncia.areadenuncia",
  "pk": 427,
  "fields": {
    "nome": "Soltos na pista",
    "categoria_denuncia": 104
  }
},
{
  "model": "denuncia.areadenuncia",
  "pk": 428,
  "fields": {
    "nome": "Aterramento de nascentes",
    "categoria_denuncia": 105
  }
},
{
  "model": "denuncia.areadenuncia",
  "pk": 429,
  "fields": {
    "nome": "Assoreamento",
    "categoria_denuncia": 105
  }
},
{
  "model": "denuncia.areadenuncia",
  "pk": 430,
  "fields": {
    "nome": "Morte s\u00fabita de peixes",
    "categoria_denuncia": 105
  }
},
{
  "model": "denuncia.areadenuncia",
  "pk": 431,
  "fields": {
    "nome": "Excesso de cloro na \u00e1gua dom\u00e9stica",
    "categoria_denuncia": 105
  }
},
{
  "model": "denuncia.areadenuncia",
  "pk": 432,
  "fields": {
    "nome": "Dispers\u00e3o a\u00e9rea",
    "categoria_denuncia": 106
  }
},
{
  "model": "denuncia.areadenuncia",
  "pk": 433,
  "fields": {
    "nome": "Descarte de embalagens em local inadequado",
    "categoria_denuncia": 106
  }
},
{
  "model": "denuncia.areadenuncia",
  "pk": 434,
  "fields": {
    "nome": "Valas de conten\u00e7\u00e3o",
    "categoria_denuncia": 106
  }
},
{
  "model": "denuncia.areadenuncia",
  "pk": 435,
  "fields": {
    "nome": "Reutiliza\u00e7\u00e3o de materiais de agrot\u00f3xico para outros fins",
    "categoria_denuncia": 106
  }
}
]
